#
# There is insufficient memory for the Java Runtime Environment to continue.
# Native memory allocation (mmap) failed to map 130023424 bytes for committing reserved memory.
# Possible reasons:
#   The system is out of physical RAM or swap space
#   In 32 bit mode, the process size limit was hit
# Possible solutions:
#   Reduce memory load on the system
#   Increase physical memory or swap space
#   Check if swap backing store is full
#   Use 64 bit Java on a 64 bit OS
#   Decrease Java heap size (-Xmx/-Xms)
#   Decrease number of Java threads
#   Decrease Java thread stack sizes (-Xss)
#   Set larger code cache with -XX:ReservedCodeCacheSize=
# This output file may be truncated or incomplete.
#
#  Out of Memory Error (os_linux.cpp:2671), pid=17544, tid=139818506688256
#
# JRE version: Java(TM) SE Runtime Environment (8.0_25-b17) (build 1.8.0_25-b17)
# Java VM: Java HotSpot(TM) 64-Bit Server VM (25.25-b02 mixed mode linux-amd64 compressed oops)
# Failed to write core dump. Core dumps have been disabled. To enable core dumping, try "ulimit -c unlimited" before starting Java again
#

---------------  T H R E A D  ---------------

Current thread (0x00007f2a1c074000):  VMThread [stack: 0x00007f2a085c9000,0x00007f2a086ca000] [id=17613]

Stack: [0x00007f2a085c9000,0x00007f2a086ca000],  sp=0x00007f2a086c80f0,  free space=1020k
Native frames: (J=compiled Java code, j=interpreted, Vv=VM code, C=native code)
V  [libjvm.so+0xa7923a]  VMError::report_and_die()+0x2ca
V  [libjvm.so+0x4e552b]  report_vm_out_of_memory(char const*, int, unsigned long, VMErrorType, char const*)+0x8b
V  [libjvm.so+0x8e5613]  os::Linux::commit_memory_impl(char*, unsigned long, bool)+0x103
V  [libjvm.so+0x8e5b69]  os::pd_commit_memory(char*, unsigned long, unsigned long, bool)+0x29
V  [libjvm.so+0x8df83a]  os::commit_memory(char*, unsigned long, unsigned long, bool)+0x2a
V  [libjvm.so+0x94f923]  PSVirtualSpace::expand_by(unsigned long)+0x53
V  [libjvm.so+0x950d28]  PSYoungGen::resize_generation(unsigned long, unsigned long)+0xf8
V  [libjvm.so+0x94fe82]  PSYoungGen::resize(unsigned long, unsigned long)+0x22
V  [libjvm.so+0x94d163]  PSScavenge::invoke_no_policy()+0xf53
V  [libjvm.so+0x94d8e1]  PSScavenge::invoke()+0x41
V  [libjvm.so+0x907800]  ParallelScavengeHeap::failed_mem_allocate(unsigned long)+0x70
V  [libjvm.so+0xa7a8b7]  VM_ParallelGCFailedAllocation::doit()+0x97
V  [libjvm.so+0xa81fd5]  VM_Operation::evaluate()+0x55
V  [libjvm.so+0xa803aa]  VMThread::evaluate_operation(VM_Operation*)+0xba
V  [libjvm.so+0xa8072e]  VMThread::loop()+0x1ce
V  [libjvm.so+0xa80ba0]  VMThread::run()+0x70
V  [libjvm.so+0x8e7d48]  java_start(Thread*)+0x108

VM_Operation (0x00007f2a22d20150): ParallelGCFailedAllocation, mode: safepoint, requested by thread 0x00007f2a1c00b000


---------------  P R O C E S S  ---------------

Java Threads: ( => current thread )
  0x00007f2a1c0b5000 JavaThread "Service Thread" daemon [_thread_blocked, id=17645, stack(0x00007f29eb6a9000,0x00007f29eb7aa000)]
  0x00007f2a1c0b2000 JavaThread "C1 CompilerThread2" daemon [_thread_blocked, id=17643, stack(0x00007f29eb7aa000,0x00007f29eb8ab000)]
  0x00007f2a1c0b0000 JavaThread "C2 CompilerThread1" daemon [_thread_blocked, id=17642, stack(0x00007f2a080c4000,0x00007f2a081c5000)]
  0x00007f2a1c0ad800 JavaThread "C2 CompilerThread0" daemon [_thread_blocked, id=17641, stack(0x00007f2a081c5000,0x00007f2a082c6000)]
  0x00007f2a1c0ab800 JavaThread "Signal Dispatcher" daemon [_thread_blocked, id=17640, stack(0x00007f2a082c6000,0x00007f2a083c7000)]
  0x00007f2a1c07d800 JavaThread "Finalizer" daemon [_thread_blocked, id=17618, stack(0x00007f2a083c7000,0x00007f2a084c8000)]
  0x00007f2a1c07b800 JavaThread "Reference Handler" daemon [_thread_blocked, id=17617, stack(0x00007f2a084c8000,0x00007f2a085c9000)]
  0x00007f2a1c00b000 JavaThread "main" [_thread_blocked, id=17569, stack(0x00007f2a22c21000,0x00007f2a22d22000)]

Other Threads:
=>0x00007f2a1c074000 VMThread [stack: 0x00007f2a085c9000,0x00007f2a086ca000] [id=17613]
  0x00007f2a1c0bc000 WatcherThread [stack: 0x00007f29eb5a8000,0x00007f29eb6a9000] [id=17647]

VM state:at safepoint (normal execution)

VM Mutex/Monitor currently owned by a thread:  ([mutex/lock_event])
[0x00007f2a1c007580] Threads_lock - owner thread: 0x00007f2a1c074000
[0x00007f2a1c007a80] Heap_lock - owner thread: 0x00007f2a1c00b000

Heap:
 PSYoungGen      total 97792K, used 3568K [0x00000000eab00000, 0x00000000f0e00000, 0x0000000100000000)
  eden space 94208K, 0% used [0x00000000eab00000,0x00000000eab00000,0x00000000f0700000)
  from space 3584K, 99% used [0x00000000f0700000,0x00000000f0a7c038,0x00000000f0a80000)
  to   space 3584K, 0% used [0x00000000f0a80000,0x00000000f0a80000,0x00000000f0e00000)
 ParOldGen       total 61440K, used 38086K [0x00000000c0000000, 0x00000000c3c00000, 0x00000000eab00000)
  object space 61440K, 61% used [0x00000000c0000000,0x00000000c2531b28,0x00000000c3c00000)
 Metaspace       used 7398K, capacity 7896K, committed 8064K, reserved 1056768K
  class space    used 732K, capacity 784K, committed 896K, reserved 1048576K

Card table byte_map: [0x00007f2a0c824000,0x00007f2a0ca25000] byte_map_base: 0x00007f2a0c224000

Marking Bits: (ParMarkBitMap*) 0x00007f2a220fe2c0
 Begin Bits: [0x00007f2a0a2ca000, 0x00007f2a0b2ca000)
 End Bits:   [0x00007f2a0b2ca000, 0x00007f2a0c2ca000)

Polling page: 0x00007f2a22d45000

CodeCache: size=245760Kb used=6305Kb max_used=6319Kb free=239454Kb
 bounds [0x00007f2a0cde5000, 0x00007f2a0d425000, 0x00007f2a1bde5000]
 total_blobs=2364 nmethods=2072 adapters=208
 compilation: enabled

Compilation events (10 events):
Event: 6.143 Thread 0x00007f2a1c0b2000 nmethod 2137 0x00007f2a0d3ff290 code [0x00007f2a0d3ff420, 0x00007f2a0d3ff7e8]
Event: 6.143 Thread 0x00007f2a1c0b2000 2138       3       java.lang.String::subSequence (7 bytes)
Event: 6.143 Thread 0x00007f2a1c0b2000 nmethod 2138 0x00007f2a0d3fee90 code [0x00007f2a0d3ff000, 0x00007f2a0d3ff208]
Event: 6.178 Thread 0x00007f2a1c0ad800 nmethod 2123 0x00007f2a0d413f10 code [0x00007f2a0d414200, 0x00007f2a0d415b30]
Event: 6.324 Thread 0x00007f2a1c0b0000 2140       4       com.android.dex.Dex$Section::readAnnotation (51 bytes)
Event: 6.324 Thread 0x00007f2a1c0ad800 2142       4       com.android.dx.merge.DexMerger$7::read (8 bytes)
Event: 6.356 Thread 0x00007f2a1c0b0000 nmethod 2140 0x00007f2a0d40f450 code [0x00007f2a0d40f600, 0x00007f2a0d40fc08]
Event: 6.356 Thread 0x00007f2a1c0b0000 2145       4       com.android.dx.merge.DexMerger::transformAnnotationDirectory (239 bytes)
Event: 6.381 Thread 0x00007f2a1c0ad800 nmethod 2142 0x00007f2a0d417450 code [0x00007f2a0d417660, 0x00007f2a0d418278]
Event: 6.381 Thread 0x00007f2a1c0ad800 2149       4       com.android.dx.merge.SortableType::tryAssignDepth (134 bytes)

GC Heap History (9 events):
Event: 2.433 GC heap before
{Heap before GC invocations=1 (full 0):
 PSYoungGen      total 27136K, used 23552K [0x00000000eab00000, 0x00000000ec900000, 0x0000000100000000)
  eden space 23552K, 100% used [0x00000000eab00000,0x00000000ec200000,0x00000000ec200000)
  from space 3584K, 0% used [0x00000000ec580000,0x00000000ec580000,0x00000000ec900000)
  to   space 3584K, 0% used [0x00000000ec200000,0x00000000ec200000,0x00000000ec580000)
 ParOldGen       total 61440K, used 0K [0x00000000c0000000, 0x00000000c3c00000, 0x00000000eab00000)
  object space 61440K, 0% used [0x00000000c0000000,0x00000000c0000000,0x00000000c3c00000)
 Metaspace       used 5595K, capacity 6768K, committed 7040K, reserved 1056768K
  class space    used 576K, capacity 616K, committed 640K, reserved 1048576K
Event: 2.644 GC heap after
Heap after GC invocations=1 (full 0):
 PSYoungGen      total 27136K, used 3573K [0x00000000eab00000, 0x00000000ee000000, 0x0000000100000000)
  eden space 23552K, 0% used [0x00000000eab00000,0x00000000eab00000,0x00000000ec200000)
  from space 3584K, 99% used [0x00000000ec200000,0x00000000ec57d430,0x00000000ec580000)
  to   space 3584K, 0% used [0x00000000edc80000,0x00000000edc80000,0x00000000ee000000)
 ParOldGen       total 61440K, used 2319K [0x00000000c0000000, 0x00000000c3c00000, 0x00000000eab00000)
  object space 61440K, 3% used [0x00000000c0000000,0x00000000c0243ff8,0x00000000c3c00000)
 Metaspace       used 5595K, capacity 6768K, committed 7040K, reserved 1056768K
  class space    used 576K, capacity 616K, committed 640K, reserved 1048576K
}
Event: 3.054 GC heap before
{Heap before GC invocations=2 (full 0):
 PSYoungGen      total 27136K, used 26661K [0x00000000eab00000, 0x00000000ee000000, 0x0000000100000000)
  eden space 23552K, 98% used [0x00000000eab00000,0x00000000ec18c070,0x00000000ec200000)
  from space 3584K, 99% used [0x00000000ec200000,0x00000000ec57d430,0x00000000ec580000)
  to   space 3584K, 0% used [0x00000000edc80000,0x00000000edc80000,0x00000000ee000000)
 ParOldGen       total 61440K, used 2319K [0x00000000c0000000, 0x00000000c3c00000, 0x00000000eab00000)
  object space 61440K, 3% used [0x00000000c0000000,0x00000000c0243ff8,0x00000000c3c00000)
 Metaspace       used 5695K, capacity 6832K, committed 7040K, reserved 1056768K
  class space    used 580K, capacity 616K, committed 640K, reserved 1048576K
Event: 3.095 GC heap after
Heap after GC invocations=2 (full 0):
 PSYoungGen      total 50688K, used 3574K [0x00000000eab00000, 0x00000000ee000000, 0x0000000100000000)
  eden space 47104K, 0% used [0x00000000eab00000,0x00000000eab00000,0x00000000ed900000)
  from space 3584K, 99% used [0x00000000edc80000,0x00000000edffd988,0x00000000ee000000)
  to   space 3584K, 0% used [0x00000000ed900000,0x00000000ed900000,0x00000000edc80000)
 ParOldGen       total 61440K, used 7663K [0x00000000c0000000, 0x00000000c3c00000, 0x00000000eab00000)
  object space 61440K, 12% used [0x00000000c0000000,0x00000000c077beb0,0x00000000c3c00000)
 Metaspace       used 5695K, capacity 6832K, committed 7040K, reserved 1056768K
  class space    used 580K, capacity 616K, committed 640K, reserved 1048576K
}
Event: 5.029 GC heap before
{Heap before GC invocations=3 (full 0):
 PSYoungGen      total 50688K, used 50678K [0x00000000eab00000, 0x00000000ee000000, 0x0000000100000000)
  eden space 47104K, 100% used [0x00000000eab00000,0x00000000ed900000,0x00000000ed900000)
  from space 3584K, 99% used [0x00000000edc80000,0x00000000edffd988,0x00000000ee000000)
  to   space 3584K, 0% used [0x00000000ed900000,0x00000000ed900000,0x00000000edc80000)
 ParOldGen       total 61440K, used 7663K [0x00000000c0000000, 0x00000000c3c00000, 0x00000000eab00000)
  object space 61440K, 12% used [0x00000000c0000000,0x00000000c077beb0,0x00000000c3c00000)
 Metaspace       used 7356K, capacity 7896K, committed 8064K, reserved 1056768K
  class space    used 732K, capacity 784K, committed 896K, reserved 1048576K
Event: 5.056 GC heap after
Heap after GC invocations=3 (full 0):
 PSYoungGen      total 50688K, used 3570K [0x00000000eab00000, 0x00000000f0e00000, 0x0000000100000000)
  eden space 47104K, 0% used [0x00000000eab00000,0x00000000eab00000,0x00000000ed900000)
  from space 3584K, 99% used [0x00000000ed900000,0x00000000edc7c968,0x00000000edc80000)
  to   space 3584K, 0% used [0x00000000f0a80000,0x00000000f0a80000,0x00000000f0e00000)
 ParOldGen       total 61440K, used 13395K [0x00000000c0000000, 0x00000000c3c00000, 0x00000000eab00000)
  object space 61440K, 21% used [0x00000000c0000000,0x00000000c0d14c68,0x00000000c3c00000)
 Metaspace       used 7356K, capacity 7896K, committed 8064K, reserved 1056768K
  class space    used 732K, capacity 784K, committed 896K, reserved 1048576K
}
Event: 5.593 GC heap before
{Heap before GC invocations=4 (full 0):
 PSYoungGen      total 50688K, used 50674K [0x00000000eab00000, 0x00000000f0e00000, 0x0000000100000000)
  eden space 47104K, 100% used [0x00000000eab00000,0x00000000ed900000,0x00000000ed900000)
  from space 3584K, 99% used [0x00000000ed900000,0x00000000edc7c968,0x00000000edc80000)
  to   space 3584K, 0% used [0x00000000f0a80000,0x00000000f0a80000,0x00000000f0e00000)
 ParOldGen       total 61440K, used 13395K [0x00000000c0000000, 0x00000000c3c00000, 0x00000000eab00000)
  object space 61440K, 21% used [0x00000000c0000000,0x00000000c0d14c68,0x00000000c3c00000)
 Metaspace       used 7383K, capacity 7896K, committed 8064K, reserved 1056768K
  class space    used 732K, capacity 784K, committed 896K, reserved 1048576K
Event: 5.649 GC heap after
Heap after GC invocations=4 (full 0):
 PSYoungGen      total 97792K, used 3581K [0x00000000eab00000, 0x00000000f0e00000, 0x0000000100000000)
  eden space 94208K, 0% used [0x00000000eab00000,0x00000000eab00000,0x00000000f0700000)
  from space 3584K, 99% used [0x00000000f0a80000,0x00000000f0dff538,0x00000000f0e00000)
  to   space 3584K, 0% used [0x00000000f0700000,0x00000000f0700000,0x00000000f0a80000)
 ParOldGen       total 61440K, used 24136K [0x00000000c0000000, 0x00000000c3c00000, 0x00000000eab00000)
  object space 61440K, 39% used [0x00000000c0000000,0x00000000c17920c8,0x00000000c3c00000)
 Metaspace       used 7383K, capacity 7896K, committed 8064K, reserved 1056768K
  class space    used 732K, capacity 784K, committed 896K, reserved 1048576K
}
Event: 6.404 GC heap before
{Heap before GC invocations=5 (full 0):
 PSYoungGen      total 97792K, used 97789K [0x00000000eab00000, 0x00000000f0e00000, 0x0000000100000000)
  eden space 94208K, 100% used [0x00000000eab00000,0x00000000f0700000,0x00000000f0700000)
  from space 3584K, 99% used [0x00000000f0a80000,0x00000000f0dff538,0x00000000f0e00000)
  to   space 3584K, 0% used [0x00000000f0700000,0x00000000f0700000,0x00000000f0a80000)
 ParOldGen       total 61440K, used 24136K [0x00000000c0000000, 0x00000000c3c00000, 0x00000000eab00000)
  object space 61440K, 39% used [0x00000000c0000000,0x00000000c17920c8,0x00000000c3c00000)
 Metaspace       used 7398K, capacity 7896K, committed 8064K, reserved 1056768K
  class space    used 732K, capacity 784K, committed 896K, reserved 1048576K

Deoptimization events (10 events):
Event: 4.047 Thread 0x00007f2a1c00b000 Uncommon trap: reason=class_check action=maybe_recompile pc=0x00007f2a0d1d30c8 method=com.android.dex.Leb128.writeUnsignedLeb128(Lcom/android/dex/util/ByteOutput;I)V @ 40
Event: 4.047 Thread 0x00007f2a1c00b000 Uncommon trap: reason=class_check action=maybe_recompile pc=0x00007f2a0d1d30c8 method=com.android.dex.Leb128.writeUnsignedLeb128(Lcom/android/dex/util/ByteOutput;I)V @ 40
Event: 4.047 Thread 0x00007f2a1c00b000 Uncommon trap: reason=class_check action=maybe_recompile pc=0x00007f2a0d1d30c8 method=com.android.dex.Leb128.writeUnsignedLeb128(Lcom/android/dex/util/ByteOutput;I)V @ 40
Event: 4.047 Thread 0x00007f2a1c00b000 Uncommon trap: reason=class_check action=maybe_recompile pc=0x00007f2a0d1d30c8 method=com.android.dex.Leb128.writeUnsignedLeb128(Lcom/android/dex/util/ByteOutput;I)V @ 40
Event: 4.194 Thread 0x00007f2a1c00b000 Uncommon trap: reason=predicate action=maybe_recompile pc=0x00007f2a0d223a60 method=com.android.dex.Leb128.writeUnsignedLeb128(Lcom/android/dex/util/ByteOutput;I)V @ 9
Event: 4.407 Thread 0x00007f2a1c00b000 Uncommon trap: reason=predicate action=maybe_recompile pc=0x00007f2a0d29c918 method=com.android.dex.Leb128.readUnsignedLeb128(Lcom/android/dex/util/ByteInput;)I @ 41
Event: 4.605 Thread 0x00007f2a1c00b000 Uncommon trap: reason=unreached action=reinterpret pc=0x00007f2a0d1fbcd8 method=java.util.HashMap.putVal(ILjava/lang/Object;Ljava/lang/Object;ZZ)Ljava/lang/Object; @ 109
Event: 4.605 Thread 0x00007f2a1c00b000 Uncommon trap: reason=unreached action=reinterpret pc=0x00007f2a0d161934 method=java.util.HashMap.resize()[Ljava/util/HashMap$Node; @ 206
Event: 4.640 Thread 0x00007f2a1c00b000 Uncommon trap: reason=unreached action=reinterpret pc=0x00007f2a0d130500 method=java.util.HashMap.getNode(ILjava/lang/Object;)Ljava/util/HashMap$Node; @ 84
Event: 4.646 Thread 0x00007f2a1c00b000 Uncommon trap: reason=unreached action=reinterpret pc=0x00007f2a0d12ec18 method=java.util.HashMap.getNode(ILjava/lang/Object;)Ljava/util/HashMap$Node; @ 84

Internal exceptions (10 events):
Event: 4.242 Thread 0x00007f2a1c00b000 Exception <a 'java/security/PrivilegedActionException'> (0x00000000eb7a50f8) thrown at [/HUDSON/workspace/8-2-build-linux-amd64/jdk8u25/1514/hotspot/src/share/vm/prims/jvm.cpp, line 1312]
Event: 4.243 Thread 0x00007f2a1c00b000 Exception <a 'java/security/PrivilegedActionException'> (0x00000000eb7a8478) thrown at [/HUDSON/workspace/8-2-build-linux-amd64/jdk8u25/1514/hotspot/src/share/vm/prims/jvm.cpp, line 1312]
Event: 4.243 Thread 0x00007f2a1c00b000 Exception <a 'java/security/PrivilegedActionException'> (0x00000000eb7ab948) thrown at [/HUDSON/workspace/8-2-build-linux-amd64/jdk8u25/1514/hotspot/src/share/vm/prims/jvm.cpp, line 1312]
Event: 4.246 Thread 0x00007f2a1c00b000 Exception <a 'java/security/PrivilegedActionException'> (0x00000000eb7b0d90) thrown at [/HUDSON/workspace/8-2-build-linux-amd64/jdk8u25/1514/hotspot/src/share/vm/prims/jvm.cpp, line 1312]
Event: 4.247 Thread 0x00007f2a1c00b000 Exception <a 'java/security/PrivilegedActionException'> (0x00000000eb7b3c80) thrown at [/HUDSON/workspace/8-2-build-linux-amd64/jdk8u25/1514/hotspot/src/share/vm/prims/jvm.cpp, line 1312]
Event: 4.248 Thread 0x00007f2a1c00b000 Exception <a 'java/security/PrivilegedActionException'> (0x00000000eb7b6d30) thrown at [/HUDSON/workspace/8-2-build-linux-amd64/jdk8u25/1514/hotspot/src/share/vm/prims/jvm.cpp, line 1312]
Event: 4.248 Thread 0x00007f2a1c00b000 Exception <a 'java/security/PrivilegedActionException'> (0x00000000eb7ba218) thrown at [/HUDSON/workspace/8-2-build-linux-amd64/jdk8u25/1514/hotspot/src/share/vm/prims/jvm.cpp, line 1312]
Event: 4.255 Thread 0x00007f2a1c00b000 Exception <a 'java/security/PrivilegedActionException'> (0x00000000eb802de8) thrown at [/HUDSON/workspace/8-2-build-linux-amd64/jdk8u25/1514/hotspot/src/share/vm/prims/jvm.cpp, line 1312]
Event: 4.265 Thread 0x00007f2a1c00b000 Exception <a 'java/security/PrivilegedActionException'> (0x00000000eb8050b0) thrown at [/HUDSON/workspace/8-2-build-linux-amd64/jdk8u25/1514/hotspot/src/share/vm/prims/jvm.cpp, line 1312]
Event: 5.188 Thread 0x00007f2a1c00b000 Exception <a 'java/security/PrivilegedActionException'> (0x00000000eb4785d0) thrown at [/HUDSON/workspace/8-2-build-linux-amd64/jdk8u25/1514/hotspot/src/share/vm/prims/jvm.cpp, line 1312]

Events (10 events):
Event: 5.541 Thread 0x00007f2a1c00b000 DEOPT UNPACKING pc=0x00007f2a0ce2bf73 sp=0x00007f2a22d20260 mode 0
Event: 5.544 Thread 0x00007f2a1c00b000 DEOPT PACKING pc=0x00007f2a0d35e0d9 sp=0x00007f2a22d204c0
Event: 5.544 Thread 0x00007f2a1c00b000 DEOPT UNPACKING pc=0x00007f2a0ce2bf73 sp=0x00007f2a22d20260 mode 0
Event: 5.593 Executing VM operation: ParallelGCFailedAllocation
Event: 5.650 Executing VM operation: ParallelGCFailedAllocation done
Event: 5.873 Thread 0x00007f2a1c00b000 DEOPT PACKING pc=0x00007f2a0d32e280 sp=0x00007f2a22d20350
Event: 5.873 Thread 0x00007f2a1c00b000 DEOPT UNPACKING pc=0x00007f2a0ce2bf73 sp=0x00007f2a22d20058 mode 0
Event: 5.889 Thread 0x00007f2a1c00b000 DEOPT PACKING pc=0x00007f2a0d32e280 sp=0x00007f2a22d20320
Event: 5.889 Thread 0x00007f2a1c00b000 DEOPT UNPACKING pc=0x00007f2a0ce2bf73 sp=0x00007f2a22d20028 mode 0
Event: 6.404 Executing VM operation: ParallelGCFailedAllocation


Dynamic libraries:
00400000-00401000 r-xp 00000000 08:01 547827                             /usr/lib/jvm/jdk1.8.0_25/bin/java
00600000-00601000 rw-p 00000000 08:01 547827                             /usr/lib/jvm/jdk1.8.0_25/bin/java
02174000-02195000 rw-p 00000000 00:00 0                                  [heap]
c0000000-c3c00000 rw-p 00000000 00:00 0 
c3c00000-eab00000 ---p 00000000 00:00 0 
eab00000-f0e00000 rw-p 00000000 00:00 0 
f8a00000-100000000 ---p 00000000 00:00 0 
100000000-1000e0000 rw-p 00000000 00:00 0 
1000e0000-140000000 ---p 00000000 00:00 0 
7f29bc000000-7f29bc022000 rw-p 00000000 00:00 0 
7f29bc022000-7f29c0000000 ---p 00000000 00:00 0 
7f29c0000000-7f29c0026000 rw-p 00000000 00:00 0 
7f29c0026000-7f29c4000000 ---p 00000000 00:00 0 
7f29c4000000-7f29c4021000 rw-p 00000000 00:00 0 
7f29c4021000-7f29c8000000 ---p 00000000 00:00 0 
7f29c8000000-7f29c8021000 rw-p 00000000 00:00 0 
7f29c8021000-7f29cc000000 ---p 00000000 00:00 0 
7f29cc000000-7f29cc021000 rw-p 00000000 00:00 0 
7f29cc021000-7f29d0000000 ---p 00000000 00:00 0 
7f29d0000000-7f29d002f000 rw-p 00000000 00:00 0 
7f29d002f000-7f29d4000000 ---p 00000000 00:00 0 
7f29d4000000-7f29d4616000 rw-p 00000000 00:00 0 
7f29d4616000-7f29d8000000 ---p 00000000 00:00 0 
7f29d8000000-7f29d8021000 rw-p 00000000 00:00 0 
7f29d8021000-7f29dc000000 ---p 00000000 00:00 0 
7f29dc000000-7f29dc975000 rw-p 00000000 00:00 0 
7f29dc975000-7f29e0000000 ---p 00000000 00:00 0 
7f29e0000000-7f29e0617000 rw-p 00000000 00:00 0 
7f29e0617000-7f29e4000000 ---p 00000000 00:00 0 
7f29e4000000-7f29e4021000 rw-p 00000000 00:00 0 
7f29e4021000-7f29e8000000 ---p 00000000 00:00 0 
7f29eb0a3000-7f29eb0a6000 ---p 00000000 00:00 0 
7f29eb0a6000-7f29eb1a4000 rw-p 00000000 00:00 0 
7f29eb1a4000-7f29eb1a7000 ---p 00000000 00:00 0 
7f29eb1a7000-7f29eb2a5000 rw-p 00000000 00:00 0 
7f29eb2a5000-7f29eb2a8000 ---p 00000000 00:00 0 
7f29eb2a8000-7f29eb3a6000 rw-p 00000000 00:00 0 
7f29eb3a6000-7f29eb3a9000 ---p 00000000 00:00 0 
7f29eb3a9000-7f29eb4a7000 rw-p 00000000 00:00 0 
7f29eb4a7000-7f29eb4aa000 ---p 00000000 00:00 0 
7f29eb4aa000-7f29eb5a8000 rw-p 00000000 00:00 0 
7f29eb5a8000-7f29eb5a9000 ---p 00000000 00:00 0 
7f29eb5a9000-7f29eb6a9000 rw-p 00000000 00:00 0                          [stack:17647]
7f29eb6a9000-7f29eb6ac000 ---p 00000000 00:00 0 
7f29eb6ac000-7f29eb7aa000 rw-p 00000000 00:00 0                          [stack:17645]
7f29eb7aa000-7f29eb7ad000 ---p 00000000 00:00 0 
7f29eb7ad000-7f29eb8ab000 rw-p 00000000 00:00 0                          [stack:17643]
7f29eb8ab000-7f29ec000000 r--p 00000000 08:01 400749                     /usr/lib/locale/locale-archive
7f29ec000000-7f29ec021000 rw-p 00000000 00:00 0 
7f29ec021000-7f29f0000000 ---p 00000000 00:00 0 
7f29f0000000-7f29f0021000 rw-p 00000000 00:00 0 
7f29f0021000-7f29f4000000 ---p 00000000 00:00 0 
7f29f4000000-7f29f4021000 rw-p 00000000 00:00 0 
7f29f4021000-7f29f8000000 ---p 00000000 00:00 0 
7f29f8000000-7f29f827c000 rw-p 00000000 00:00 0 
7f29f827c000-7f29fc000000 ---p 00000000 00:00 0 
7f29fc000000-7f29fc021000 rw-p 00000000 00:00 0 
7f29fc021000-7f2a00000000 ---p 00000000 00:00 0 
7f2a00000000-7f2a00021000 rw-p 00000000 00:00 0 
7f2a00021000-7f2a04000000 ---p 00000000 00:00 0 
7f2a04000000-7f2a04021000 rw-p 00000000 00:00 0 
7f2a04021000-7f2a08000000 ---p 00000000 00:00 0 
7f2a080c4000-7f2a080c7000 ---p 00000000 00:00 0 
7f2a080c7000-7f2a081c5000 rw-p 00000000 00:00 0                          [stack:17642]
7f2a081c5000-7f2a081c8000 ---p 00000000 00:00 0 
7f2a081c8000-7f2a082c6000 rw-p 00000000 00:00 0                          [stack:17641]
7f2a082c6000-7f2a082c9000 ---p 00000000 00:00 0 
7f2a082c9000-7f2a083c7000 rw-p 00000000 00:00 0                          [stack:17640]
7f2a083c7000-7f2a083ca000 ---p 00000000 00:00 0 
7f2a083ca000-7f2a084c8000 rw-p 00000000 00:00 0                          [stack:17618]
7f2a084c8000-7f2a084cb000 ---p 00000000 00:00 0 
7f2a084cb000-7f2a085c9000 rw-p 00000000 00:00 0                          [stack:17617]
7f2a085c9000-7f2a085ca000 ---p 00000000 00:00 0 
7f2a085ca000-7f2a0967e000 rw-p 00000000 00:00 0                          [stack:17613]
7f2a0967e000-7f2a09854000 r--s 03caa000 08:01 547736                     /usr/lib/jvm/jdk1.8.0_25/jre/lib/rt.jar
7f2a09854000-7f2a09fca000 rw-p 00000000 00:00 0 
7f2a09fca000-7f2a0a0ca000 ---p 00000000 00:00 0 
7f2a0a0ca000-7f2a0c2ca000 rw-p 00000000 00:00 0 
7f2a0c2ca000-7f2a0c2cb000 ---p 00000000 00:00 0 
7f2a0c2cb000-7f2a0c3cb000 rw-p 00000000 00:00 0                          [stack:17591]
7f2a0c3cb000-7f2a0c3cc000 ---p 00000000 00:00 0 
7f2a0c3cc000-7f2a0c4cc000 rw-p 00000000 00:00 0                          [stack:17590]
7f2a0c4cc000-7f2a0c4cd000 ---p 00000000 00:00 0 
7f2a0c4cd000-7f2a0c5cd000 rw-p 00000000 00:00 0                          [stack:17589]
7f2a0c5cd000-7f2a0c5ce000 ---p 00000000 00:00 0 
7f2a0c5ce000-7f2a0c6ec000 rw-p 00000000 00:00 0                          [stack:17588]
7f2a0c6ec000-7f2a0c824000 ---p 00000000 00:00 0 
7f2a0c824000-7f2a0c842000 rw-p 00000000 00:00 0 
7f2a0c842000-7f2a0c979000 ---p 00000000 00:00 0 
7f2a0c979000-7f2a0c9ab000 rw-p 00000000 00:00 0 
7f2a0c9ab000-7f2a0ca24000 ---p 00000000 00:00 0 
7f2a0ca24000-7f2a0ca3e000 rw-p 00000000 00:00 0 
7f2a0ca3e000-7f2a0cde5000 ---p 00000000 00:00 0 
7f2a0cde5000-7f2a0d425000 rwxp 00000000 00:00 0 
7f2a0d425000-7f2a1bde5000 ---p 00000000 00:00 0 
7f2a1bde5000-7f2a1bdff000 r-xp 00000000 08:01 547687                     /usr/lib/jvm/jdk1.8.0_25/jre/lib/amd64/libzip.so
7f2a1bdff000-7f2a1bfff000 ---p 0001a000 08:01 547687                     /usr/lib/jvm/jdk1.8.0_25/jre/lib/amd64/libzip.so
7f2a1bfff000-7f2a1c000000 rw-p 0001a000 08:01 547687                     /usr/lib/jvm/jdk1.8.0_25/jre/lib/amd64/libzip.so
7f2a1c000000-7f2a1c375000 rw-p 00000000 00:00 0 
7f2a1c375000-7f2a20000000 ---p 00000000 00:00 0 
7f2a20010000-7f2a2001f000 r--s 000df000 08:01 267069                     /home/myozawoo/sdk/build-tools/23.0.0/lib/dx.jar
7f2a2001f000-7f2a2002a000 r-xp 00000000 08:01 1060009                    /lib/x86_64-linux-gnu/libnss_files-2.19.so
7f2a2002a000-7f2a20229000 ---p 0000b000 08:01 1060009                    /lib/x86_64-linux-gnu/libnss_files-2.19.so
7f2a20229000-7f2a2022a000 r--p 0000a000 08:01 1060009                    /lib/x86_64-linux-gnu/libnss_files-2.19.so
7f2a2022a000-7f2a2022b000 rw-p 0000b000 08:01 1060009                    /lib/x86_64-linux-gnu/libnss_files-2.19.so
7f2a2022b000-7f2a20236000 r-xp 00000000 08:01 1060006                    /lib/x86_64-linux-gnu/libnss_nis-2.19.so
7f2a20236000-7f2a20435000 ---p 0000b000 08:01 1060006                    /lib/x86_64-linux-gnu/libnss_nis-2.19.so
7f2a20435000-7f2a20436000 r--p 0000a000 08:01 1060006                    /lib/x86_64-linux-gnu/libnss_nis-2.19.so
7f2a20436000-7f2a20437000 rw-p 0000b000 08:01 1060006                    /lib/x86_64-linux-gnu/libnss_nis-2.19.so
7f2a20437000-7f2a2044e000 r-xp 00000000 08:01 1060000                    /lib/x86_64-linux-gnu/libnsl-2.19.so
7f2a2044e000-7f2a2064d000 ---p 00017000 08:01 1060000                    /lib/x86_64-linux-gnu/libnsl-2.19.so
7f2a2064d000-7f2a2064e000 r--p 00016000 08:01 1060000                    /lib/x86_64-linux-gnu/libnsl-2.19.so
7f2a2064e000-7f2a2064f000 rw-p 00017000 08:01 1060000                    /lib/x86_64-linux-gnu/libnsl-2.19.so
7f2a2064f000-7f2a20651000 rw-p 00000000 00:00 0 
7f2a20651000-7f2a2065a000 r-xp 00000000 08:01 1059997                    /lib/x86_64-linux-gnu/libnss_compat-2.19.so
7f2a2065a000-7f2a20859000 ---p 00009000 08:01 1059997                    /lib/x86_64-linux-gnu/libnss_compat-2.19.so
7f2a20859000-7f2a2085a000 r--p 00008000 08:01 1059997                    /lib/x86_64-linux-gnu/libnss_compat-2.19.so
7f2a2085a000-7f2a2085b000 rw-p 00009000 08:01 1059997                    /lib/x86_64-linux-gnu/libnss_compat-2.19.so
7f2a2085b000-7f2a20885000 r-xp 00000000 08:01 547666                     /usr/lib/jvm/jdk1.8.0_25/jre/lib/amd64/libjava.so
7f2a20885000-7f2a20a85000 ---p 0002a000 08:01 547666                     /usr/lib/jvm/jdk1.8.0_25/jre/lib/amd64/libjava.so
7f2a20a85000-7f2a20a87000 rw-p 0002a000 08:01 547666                     /usr/lib/jvm/jdk1.8.0_25/jre/lib/amd64/libjava.so
7f2a20a87000-7f2a20a94000 r-xp 00000000 08:01 547681                     /usr/lib/jvm/jdk1.8.0_25/jre/lib/amd64/libverify.so
7f2a20a94000-7f2a20c94000 ---p 0000d000 08:01 547681                     /usr/lib/jvm/jdk1.8.0_25/jre/lib/amd64/libverify.so
7f2a20c94000-7f2a20c96000 rw-p 0000d000 08:01 547681                     /usr/lib/jvm/jdk1.8.0_25/jre/lib/amd64/libverify.so
7f2a20c96000-7f2a20c9d000 r-xp 00000000 08:01 1059992                    /lib/x86_64-linux-gnu/librt-2.19.so
7f2a20c9d000-7f2a20e9c000 ---p 00007000 08:01 1059992                    /lib/x86_64-linux-gnu/librt-2.19.so
7f2a20e9c000-7f2a20e9d000 r--p 00006000 08:01 1059992                    /lib/x86_64-linux-gnu/librt-2.19.so
7f2a20e9d000-7f2a20e9e000 rw-p 00007000 08:01 1059992                    /lib/x86_64-linux-gnu/librt-2.19.so
7f2a20e9e000-7f2a20fa3000 r-xp 00000000 08:01 1059999                    /lib/x86_64-linux-gnu/libm-2.19.so
7f2a20fa3000-7f2a211a2000 ---p 00105000 08:01 1059999                    /lib/x86_64-linux-gnu/libm-2.19.so
7f2a211a2000-7f2a211a3000 r--p 00104000 08:01 1059999                    /lib/x86_64-linux-gnu/libm-2.19.so
7f2a211a3000-7f2a211a4000 rw-p 00105000 08:01 1059999                    /lib/x86_64-linux-gnu/libm-2.19.so
7f2a211a4000-7f2a21e11000 r-xp 00000000 08:01 547703                     /usr/lib/jvm/jdk1.8.0_25/jre/lib/amd64/server/libjvm.so
7f2a21e11000-7f2a22010000 ---p 00c6d000 08:01 547703                     /usr/lib/jvm/jdk1.8.0_25/jre/lib/amd64/server/libjvm.so
7f2a22010000-7f2a220e6000 rw-p 00c6c000 08:01 547703                     /usr/lib/jvm/jdk1.8.0_25/jre/lib/amd64/server/libjvm.so
7f2a220e6000-7f2a22129000 rw-p 00000000 00:00 0 
7f2a22129000-7f2a222e4000 r-xp 00000000 08:01 1051666                    /lib/x86_64-linux-gnu/libc-2.19.so
7f2a222e4000-7f2a224e4000 ---p 001bb000 08:01 1051666                    /lib/x86_64-linux-gnu/libc-2.19.so
7f2a224e4000-7f2a224e8000 r--p 001bb000 08:01 1051666                    /lib/x86_64-linux-gnu/libc-2.19.so
7f2a224e8000-7f2a224ea000 rw-p 001bf000 08:01 1051666                    /lib/x86_64-linux-gnu/libc-2.19.so
7f2a224ea000-7f2a224ef000 rw-p 00000000 00:00 0 
7f2a224ef000-7f2a224f2000 r-xp 00000000 08:01 1059995                    /lib/x86_64-linux-gnu/libdl-2.19.so
7f2a224f2000-7f2a226f1000 ---p 00003000 08:01 1059995                    /lib/x86_64-linux-gnu/libdl-2.19.so
7f2a226f1000-7f2a226f2000 r--p 00002000 08:01 1059995                    /lib/x86_64-linux-gnu/libdl-2.19.so
7f2a226f2000-7f2a226f3000 rw-p 00003000 08:01 1059995                    /lib/x86_64-linux-gnu/libdl-2.19.so
7f2a226f3000-7f2a22708000 r-xp 00000000 08:01 546761                     /usr/lib/jvm/jdk1.8.0_25/lib/amd64/jli/libjli.so
7f2a22708000-7f2a22907000 ---p 00015000 08:01 546761                     /usr/lib/jvm/jdk1.8.0_25/lib/amd64/jli/libjli.so
7f2a22907000-7f2a22908000 rw-p 00014000 08:01 546761                     /usr/lib/jvm/jdk1.8.0_25/lib/amd64/jli/libjli.so
7f2a22908000-7f2a22921000 r-xp 00000000 08:01 1060008                    /lib/x86_64-linux-gnu/libpthread-2.19.so
7f2a22921000-7f2a22b20000 ---p 00019000 08:01 1060008                    /lib/x86_64-linux-gnu/libpthread-2.19.so
7f2a22b20000-7f2a22b21000 r--p 00018000 08:01 1060008                    /lib/x86_64-linux-gnu/libpthread-2.19.so
7f2a22b21000-7f2a22b22000 rw-p 00019000 08:01 1060008                    /lib/x86_64-linux-gnu/libpthread-2.19.so
7f2a22b22000-7f2a22b26000 rw-p 00000000 00:00 0 
7f2a22b26000-7f2a22b49000 r-xp 00000000 08:01 1049932                    /lib/x86_64-linux-gnu/ld-2.19.so
7f2a22b4b000-7f2a22b4f000 r--s 00093000 08:01 547739                     /usr/lib/jvm/jdk1.8.0_25/jre/lib/jsse.jar
7f2a22b4f000-7f2a22c21000 rw-p 00000000 00:00 0 
7f2a22c21000-7f2a22c24000 ---p 00000000 00:00 0 
7f2a22c24000-7f2a22d26000 rw-p 00000000 00:00 0                          [stack:17569]
7f2a22d27000-7f2a22d3c000 rw-p 00000000 00:00 0 
7f2a22d3c000-7f2a22d44000 rw-s 00000000 08:01 262355                     /tmp/hsperfdata_myozawoo/17544
7f2a22d44000-7f2a22d45000 rw-p 00000000 00:00 0 
7f2a22d45000-7f2a22d46000 ---p 00000000 00:00 0 
7f2a22d46000-7f2a22d48000 rw-p 00000000 00:00 0 
7f2a22d48000-7f2a22d49000 r--p 00022000 08:01 1049932                    /lib/x86_64-linux-gnu/ld-2.19.so
7f2a22d49000-7f2a22d4a000 rw-p 00023000 08:01 1049932                    /lib/x86_64-linux-gnu/ld-2.19.so
7f2a22d4a000-7f2a22d4b000 rw-p 00000000 00:00 0 
7fffcf97e000-7fffcf9a0000 rw-p 00000000 00:00 0                          [stack]
7fffcf9fe000-7fffcfa00000 r-xp 00000000 00:00 0                          [vdso]
ffffffffff600000-ffffffffff601000 r-xp 00000000 00:00 0                  [vsyscall]

VM Arguments:
jvm_args: -Xmx1024M -Dfile.encoding=UTF-8 -Duser.country=US -Duser.language=en -Duser.variant 
java_command: com.android.dx.command.Main --dex --num-threads=4 --output /home/myozawoo/AndroidStudioProjects/DohSanda/app/build/intermediates/dex/debug /home/myozawoo/AndroidStudioProjects/DohSanda/app/build/intermediates/classes/debug /home/myozawoo/AndroidStudioProjects/DohSanda/app/build/intermediates/pre-dexed/debug/support-annotations-22.2.1-993bc12a9937a948e81a858b09ca14377f4a5ec8.jar /home/myozawoo/AndroidStudioProjects/DohSanda/app/build/intermediates/pre-dexed/debug/lib-4b9df06a930ea95cff49889f53e870024074de4a.jar /home/myozawoo/AndroidStudioProjects/DohSanda/app/build/intermediates/pre-dexed/debug/classes-34f1381dab43d28bcab57a9669c1109f331300ae.jar /home/myozawoo/AndroidStudioProjects/DohSanda/app/build/intermediates/pre-dexed/debug/classes-71bd0be1b7d6d9d8739aa584272f17ee67d6bc0e.jar /home/myozawoo/AndroidStudioProjects/DohSanda/app/build/intermediates/pre-dexed/debug/okio-1.4.0-fb894123790d2cd37f62bc16e65f4be9ee717637.jar /home/myozawoo/AndroidStudioProjects/DohSanda/app/build/intermediates/pre-dexed/debug/retrofit-1.9.0-f9c5fce7402e0e290ab2dabba8be837468965100.jar /home/myozawoo/AndroidStudioProjects/DohSanda/app/build/intermediates/pre-dexed/debug/classes-13f9c08e9d11469b83e944a272f66896f79ed4f2.jar /home/myozawoo/AndroidStudioProjects/DohSanda/app/build/intermediates/pre-dexed/debug/classes-d097993004a0d5320dcb184dbe2c3f871fbae381.jar /home/myozawoo/AndroidStudioProjects/DohSanda/app/build/intermediates/pre-dexed/debug/classes-987120da2c928f66b474290e5775428b94320344.jar /home/myozawoo/AndroidStudioProjects/DohSanda/app/build/intermediates/pre-dexed/debug/gson-2.3.1-81ebc9b083c402cfeb55aa5fccc3c841bdf8f73f.jar /home/myozawoo/AndroidStudioProjects/DohSanda/app/build/intermediates/pre-dexed/debug/internal_impl-22.2.1-cb95cbd7652c7839c89935351d051ca11c486f62.jar /home/myozawoo/AndroidStudioProjects/DohSanda/app/build/intermediates/pre-dexed/debug/classes-14ee23425c8fbf6347efa2890f2a6deb39d93c74.jar /home/myozawoo/AndroidStudioProjects/DohSanda/app/bu
java_class_path (initial): /home/myozawoo/sdk/build-tools/23.0.0/lib/dx.jar
Launcher Type: SUN_STANDARD

Environment Variables:
JAVA_HOME=/usr/lib/jvm/java-8-oracle
PATH=/home/myozawoo/java/adt-bundle-linux-x86_64-20140702/sdk/platform-tools:/usr/local/sbin:/usr/local/bin:/usr/sbin:/usr/bin:/sbin:/bin:/usr/games:/usr/local/games:/usr/lib/jvm/java-8-oracle/bin:/usr/lib/jvm/java-8-oracle/db/bin:/usr/lib/jvm/java-8-oracle/jre/bin
SHELL=/bin/bash
DISPLAY=:0

Signal Handlers:
SIGSEGV: [libjvm.so+0xa79a80], sa_mask[0]=11111111011111111101111111111110, sa_flags=SA_RESTART|SA_SIGINFO
SIGBUS: [libjvm.so+0xa79a80], sa_mask[0]=11111111011111111101111111111110, sa_flags=SA_RESTART|SA_SIGINFO
SIGFPE: [libjvm.so+0x8e24e0], sa_mask[0]=11111111011111111101111111111110, sa_flags=SA_RESTART|SA_SIGINFO
SIGPIPE: [libjvm.so+0x8e24e0], sa_mask[0]=11111111011111111101111111111110, sa_flags=SA_RESTART|SA_SIGINFO
SIGXFSZ: [libjvm.so+0x8e24e0], sa_mask[0]=11111111011111111101111111111110, sa_flags=SA_RESTART|SA_SIGINFO
SIGILL: [libjvm.so+0x8e24e0], sa_mask[0]=11111111011111111101111111111110, sa_flags=SA_RESTART|SA_SIGINFO
SIGUSR1: SIG_DFL, sa_mask[0]=00000000000000000000000000000000, sa_flags=none
SIGUSR2: [libjvm.so+0x8e3d10], sa_mask[0]=00100000000000000000000000000000, sa_flags=SA_RESTART|SA_SIGINFO
SIGHUP: [libjvm.so+0x8e50d0], sa_mask[0]=11111111011111111101111111111110, sa_flags=SA_RESTART|SA_SIGINFO
SIGINT: [libjvm.so+0x8e50d0], sa_mask[0]=11111111011111111101111111111110, sa_flags=SA_RESTART|SA_SIGINFO
SIGTERM: [libjvm.so+0x8e50d0], sa_mask[0]=11111111011111111101111111111110, sa_flags=SA_RESTART|SA_SIGINFO
SIGQUIT: [libjvm.so+0x8e50d0], sa_mask[0]=11111111011111111101111111111110, sa_flags=SA_RESTART|SA_SIGINFO


---------------  S Y S T E M  ---------------

OS:DISTRIB_ID=Ubuntu
DISTRIB_RELEASE=14.04
DISTRIB_CODENAME=trusty
DISTRIB_DESCRIPTION="Ubuntu 14.04.1 LTS"

uname:Linux 3.13.0-45-generic #74-Ubuntu SMP Tue Jan 13 19:36:28 UTC 2015 x86_64
libc:glibc 2.19 NPTL 2.19 
rlimit: STACK 8192k, CORE 0k, NPROC 45904, NOFILE 4096, AS infinity
load average:4.48 2.72 2.27

/proc/meminfo:
MemTotal:        5897348 kB
MemFree:          158748 kB
Buffers:            1780 kB
Cached:          1613376 kB
SwapCached:        11624 kB
Active:          3950628 kB
Inactive:        1531264 kB
Active(anon):    3940096 kB
Inactive(anon):  1507356 kB
Active(file):      10532 kB
Inactive(file):    23908 kB
Unevictable:          76 kB
Mlocked:              84 kB
SwapTotal:       2161660 kB
SwapFree:            104 kB
Dirty:               208 kB
Writeback:             0 kB
AnonPages:       3855764 kB
Mapped:            75868 kB
Shmem:           1580280 kB
Slab:             113852 kB
SReclaimable:      57460 kB
SUnreclaim:        56392 kB
KernelStack:        5600 kB
PageTables:        59172 kB
NFS_Unstable:          0 kB
Bounce:                0 kB
WritebackTmp:          0 kB
CommitLimit:     5110332 kB
Committed_AS:   14074796 kB
VmallocTotal:   34359738367 kB
VmallocUsed:      364184 kB
VmallocChunk:   34359361020 kB
HardwareCorrupted:     0 kB
AnonHugePages:    866304 kB
HugePages_Total:       0
HugePages_Free:        0
HugePages_Rsvd:        0
HugePages_Surp:        0
Hugepagesize:       2048 kB
DirectMap4k:       72072 kB
DirectMap2M:     6004736 kB


CPU:total 4 (2 cores per cpu, 2 threads per core) family 6 model 37 stepping 2, cmov, cx8, fxsr, mmx, sse, sse2, sse3, ssse3, sse4.1, sse4.2, popcnt, ht, tsc, tscinvbit

/proc/cpuinfo:
processor	: 0
vendor_id	: GenuineIntel
cpu family	: 6
model		: 37
model name	: Intel(R) Core(TM) i3 CPU       M 350  @ 2.27GHz
stepping	: 2
microcode	: 0x9
cpu MHz		: 2266.000
cache size	: 3072 KB
physical id	: 0
siblings	: 4
core id		: 0
cpu cores	: 2
apicid		: 0
initial apicid	: 0
fpu		: yes
fpu_exception	: yes
cpuid level	: 11
wp		: yes
flags		: fpu vme de pse tsc msr pae mce cx8 apic sep mtrr pge mca cmov pat pse36 clflush dts acpi mmx fxsr sse sse2 ss ht tm pbe syscall nx rdtscp lm constant_tsc arch_perfmon pebs bts rep_good nopl xtopology nonstop_tsc aperfmperf pni dtes64 monitor ds_cpl vmx est tm2 ssse3 cx16 xtpr pdcm sse4_1 sse4_2 popcnt lahf_lm arat dtherm tpr_shadow vnmi flexpriority ept vpid
bogomips	: 4522.01
clflush size	: 64
cache_alignment	: 64
address sizes	: 36 bits physical, 48 bits virtual
power management:

processor	: 1
vendor_id	: GenuineIntel
cpu family	: 6
model		: 37
model name	: Intel(R) Core(TM) i3 CPU       M 350  @ 2.27GHz
stepping	: 2
microcode	: 0x9
cpu MHz		: 2266.000
cache size	: 3072 KB
physical id	: 0
siblings	: 4
core id		: 2
cpu cores	: 2
apicid		: 4
initial apicid	: 4
fpu		: yes
fpu_exception	: yes
cpuid level	: 11
wp		: yes
flags		: fpu vme de pse tsc msr pae mce cx8 apic sep mtrr pge mca cmov pat pse36 clflush dts acpi mmx fxsr sse sse2 ss ht tm pbe syscall nx rdtscp lm constant_tsc arch_perfmon pebs bts rep_good nopl xtopology nonstop_tsc aperfmperf pni dtes64 monitor ds_cpl vmx est tm2 ssse3 cx16 xtpr pdcm sse4_1 sse4_2 popcnt lahf_lm arat dtherm tpr_shadow vnmi flexpriority ept vpid
bogomips	: 4522.01
clflush size	: 64
cache_alignment	: 64
address sizes	: 36 bits physical, 48 bits virtual
power management:

processor	: 2
vendor_id	: GenuineIntel
cpu family	: 6
model		: 37
model name	: Intel(R) Core(TM) i3 CPU       M 350  @ 2.27GHz
stepping	: 2
microcode	: 0x9
cpu MHz		: 2266.000
cache size	: 3072 KB
physical id	: 0
siblings	: 4
core id		: 0
cpu cores	: 2
apicid		: 1
initial apicid	: 1
fpu		: yes
fpu_exception	: yes
cpuid level	: 11
wp		: yes
flags		: fpu vme de pse tsc msr pae mce cx8 apic sep mtrr pge mca cmov pat pse36 clflush dts acpi mmx fxsr sse sse2 ss ht tm pbe syscall nx rdtscp lm constant_tsc arch_perfmon pebs bts rep_good nopl xtopology nonstop_tsc aperfmperf pni dtes64 monitor ds_cpl vmx est tm2 ssse3 cx16 xtpr pdcm sse4_1 sse4_2 popcnt lahf_lm arat dtherm tpr_shadow vnmi flexpriority ept vpid
bogomips	: 4522.01
clflush size	: 64
cache_alignment	: 64
address sizes	: 36 bits physical, 48 bits virtual
power management:

processor	: 3
vendor_id	: GenuineIntel
cpu family	: 6
model		: 37
model name	: Intel(R) Core(TM) i3 CPU       M 350  @ 2.27GHz
stepping	: 2
microcode	: 0x9
cpu MHz		: 2266.000
cache size	: 3072 KB
physical id	: 0
siblings	: 4
core id		: 2
cpu cores	: 2
apicid		: 5
initial apicid	: 5
fpu		: yes
fpu_exception	: yes
cpuid level	: 11
wp		: yes
flags		: fpu vme de pse tsc msr pae mce cx8 apic sep mtrr pge mca cmov pat pse36 clflush dts acpi mmx fxsr sse sse2 ss ht tm pbe syscall nx rdtscp lm constant_tsc arch_perfmon pebs bts rep_good nopl xtopology nonstop_tsc aperfmperf pni dtes64 monitor ds_cpl vmx est tm2 ssse3 cx16 xtpr pdcm sse4_1 sse4_2 popcnt lahf_lm arat dtherm tpr_shadow vnmi flexpriority ept vpid
bogomips	: 4522.01
clflush size	: 64
cache_alignment	: 64
address sizes	: 36 bits physical, 48 bits virtual
power management:



Memory: 4k page, physical 5897348k(158748k free), swap 2161660k(104k free)

vm_info: Java HotSpot(TM) 64-Bit Server VM (25.25-b02) for linux-amd64 JRE (1.8.0_25-b17), built on Sep 17 2014 17:32:11 by "java_re" with gcc 4.3.0 20080428 (Red Hat 4.3.0-8)

time: Wed Sep  2 22:22:45 2015
elapsed time: 11 seconds (0d 0h 0m 11s)

